Extract Samples to Represent All Variables • repvar
…
# calculate entropy for each data set -------------------------------------
# The statistics returns a data frame, but because we've embedded the data,
# we must calculate this separately and then merge it later.
entro <- res %>% 
  dplyr::mutate(e = list(rpv_stats(dat))) %>% # calculate stats for each row
  dplyr::select(index, e) %>%               # retain only stats and index
  tidyr::unnest()                           # spread out the columns

# sort by E5, and missingness. ----------------------------
res_sort <- res %>%
  dplyr::inner_join(entro, by = "index") %>%
  dplyr::arrange(-E5, missing)
res_sort
#> # A tibble: 50 x 10
#>    index ids            n dat              nall    eH     G    E5 lambda missing
#>    <int> <list>     <int> <list>          <int> <dbl> <dbl> <dbl>  <dbl>   <dbl>
#>  1    46 <chr [30]>    30 <int [30 × 95]>    95  55.9  40.6 0.721  0.978 0.00877
#>  2    12 <chr [30]>    30 <int [30 × 95]>    95  55.7  40.4 0.721  0.978 0.00877
#>  3    28 <chr [30]>    30 <int [30 × 95]>    95  55.8  40.4 0.719  0.978 0.00877
#>  4    26 <chr [30]>    30 <int [30 × 95]>    95  55.5  40.2 0.719  0.978 0.00772
#>  5    17 <chr [30]>    30 <int [30 × 95]>    95  55.4  40.1 0.718  0.978 0.00772
#>  6    24 <chr [30]>    30 <int [30 × 95]>    95  55.4  40.1 0.718  0.978 0.00772
#>  7    41 <chr [30]>    30 <int [30 × 95]>    95  55.1  39.8 0.718  0.977 0.00772
#>  8    23 <chr [30]>    30 <int [30 × 95]>    95  55.1  39.8 0.717  0.977 0.00772
#>  9    48 <chr [30]>    30 <int [30 × 95]>    95  55.5  40.1 0.717  0.978 0.00596
#> 10    27 <chr [30]>    30 <int [30 × 95]>    95  55.3  39.9 0.717  0.977 0.00772
#> # ... with 40 more rows
…
f <- gsub("[.][0-9]+", "", colnames(monilinia))
f <- factor(f, unique(f))
entromean <- res %>% 
  dplyr::mutate(e = list(rpv_stats(dat, f = f))) %>% # calculate stats for each row
  dplyr::select(index, e) %>%               # retain only stats and index
  tidyr::unnest() %>%                       # spread out the columns
  dplyr::group_by(index) %>%
  dplyr::summarize_if(is.numeric, mean)     # calculate mean over all loci

# sort by E5, and missingness. ----------------------------
resmean_sort <- res %>%
  dplyr::inner_join(entromean, by = "index") %>%
  dplyr::arrange(-E5, missing)
resmean_sort
#> # A tibble: 50 x 10
#>    index ids            n dat              nall    eH     G    E5 lambda missing
#>    <int> <list>     <int> <list>          <int> <dbl> <dbl> <dbl>  <dbl>   <dbl>
#>  1    46 <chr [30]>    30 <int [30 × 95]>    95  4.67  3.60 0.716  0.702 0.0103 
#>  2    36 <chr [30]>    30 <int [30 × 95]>    95  4.64  3.62 0.716  0.698 0.00513
#>  3    26 <chr [30]>    30 <int [30 × 95]>    95  4.64  3.59 0.715  0.699 0.00769
#>  4    28 <chr [30]>    30 <int [30 × 95]>    95  4.67  3.62 0.715  0.700 0.0103 
#>  5    17 <chr [30]>    30 <int [30 × 95]>    95  4.62  3.60 0.714  0.698 0.00769
#>  6    27 <chr [30]>    30 <int [30 × 95]>    95  4.63  3.60 0.713  0.697 0.00769
#>  7    24 <chr [30]>    30 <int [30 × 95]>    95  4.63  3.59 0.713  0.698 0.00769
#>  8     3 <chr [30]>    30 <int [30 × 95]>    95  4.62  3.59 0.713  0.696 0.00769
#>  9    20 <chr [30]>    30 <int [30 × 95]>    95  4.62  3.60 0.713  0.696 0.00513
#> 10    22 <chr [30]>    30 <int [30 × 95]>    95  4.61  3.57 0.712  0.694 0.00769
#> # ... with 40 more rows
…
